wave.vcd
$date
	Fri Mar 14 18:18:35 2025
$end
$version
	Icarus Verilog
$end
$timescale
	1ps
$end
$scope module tb $end
$scope module stim1 $end
$var wire 1 ! clk $end
$upscope $end
$upscope $end
$scope module tb $end
$var wire 1 " tb_mismatch $end
$upscope $end
$scope module tb $end
$var wire 1 # in $end
$upscope $end
$scope module tb $end
$var wire 1 $ out_ref $end
$upscope $end
$scope module tb $end
$var wire 1 % out_dut $end
$upscope $end
$enddefinitions $end
$comment Show the parameter values. $end
$dumpall
$end
#0
$dumpvars
0%
0$
0#
0"
0!
$end
#5
1!
#10
0"
1%
1$
1#
0!
#15
1!
#20
0!
#25
1!
#30
0!
#35
1!
#40
0"
0%
0$
0#
0!
#45
0"
1%
1$
1#
1!
#50
0!
#55
0"
0%
0$
0#
1!
#60
0"
1%
1$
1#
0!
#65
1!
#70
0"
0%
0$
0#
0!
#75
0"
1%
1$
1#
1!
#80
0"
0%
0$
0#
0!
#85
0"
1%
1$
1#
1!
#90
0"
0%
0$
0#
0!
#95
0"
1%
1$
1#
1!
#100
0!
#105
0"
0%
0$
0#
1!
#110
0"
1%
1$
1#
0!
#115
0"
0%
0$
0#
1!
#120
0!
#125
1!
#130
0"
1%
1$
1#
0!
#135
0"
0%
0$
0#
1!
#140
0"
1%
1$
1#
0!
#145
1!
#150
0!
#155
1!
#160
0"
0%
0$
0#
0!
#165
1!
#170
0!
#175
1!
#180
0"
1%
1$
1#
0!
#185
0"
0%
0$
0#
1!
#190
0"
1%
1$
1#
0!
#195
1!
#200
0!
#205
1!
#210
0!
#215
0"
0%
0$
0#
1!
#220
0!
#225
0"
1%
1$
1#
1!
#230
0!
#235
1!
#240
0"
0%
0$
0#
0!
#245
1!
#250
0!
#255
1!
#260
0!
#265
0"
1%
1$
1#
1!
#270
0"
0%
0$
0#
0!
#275
1!
#280
0"
1%
1$
1#
0!
#285
1!
#290
0"
0%
0$
0#
0!
#295
1!
#300
0!
#305
1!
#310
0!
#315
0"
1%
1$
1#
1!
#320
0!
#325
1!
#330
0!
#335
1!
#340
0"
0%
0$
0#
0!
#345
1!
#350
0"
1%
1$
1#
0!
#355
1!
#360
0!
#365
0"
0%
0$
0#
1!
#370
0!
#375
0"
1%
1$
1#
1!
#380
0!
#385
0"
0%
0$
0#
1!
#390
0"
1%
1$
1#
0!
#395
1!
#400
0"
0%
0$
0#
0!
#405
0"
1%
1$
1#
1!
#410
0!
#415
1!
#420
0"
0%
0$
0#
0!
#425
0"
1%
1$
1#
1!
#430
0!
#435
0"
0%
0$
0#
1!
#440
0!
#445
1!
#450
0!
#455
0"
1%
1$
1#
1!
#460
0!
#465
0"
0%
0$
0#
1!
#470
0!
#475
0"
1%
1$
1#
1!
#480
0!
#485
1!
#490
0!
#495
1!
#500
0"
0%
0$
0#
0!
