wave.vcd
$date
	Fri Mar 14 20:14:25 2025
$end
$version
	Icarus Verilog
$end
$timescale
	1ps
$end
$scope module tb $end
$scope module stim1 $end
$var wire 1 ! clk $end
$upscope $end
$upscope $end
$scope module tb $end
$var wire 1 " tb_mismatch $end
$upscope $end
$scope module tb $end
$var reg 1 ! clk $end
$upscope $end
$scope module tb $end
$var wire 1 # reset $end
$upscope $end
$scope module tb $end
$var wire 1 $ data $end
$upscope $end
$scope module tb $end
$var wire 1 % ack $end
$upscope $end
$scope module tb $end
$var wire 4 & count_ref [3:0] $end
$upscope $end
$scope module tb $end
$var wire 4 ' count_dut [3:0] $end
$upscope $end
$scope module tb $end
$var wire 1 ( counting_ref $end
$upscope $end
$scope module tb $end
$var wire 1 ) counting_dut $end
$upscope $end
$scope module tb $end
$var wire 1 * done_ref $end
$upscope $end
$scope module tb $end
$var wire 1 + done_dut $end
$upscope $end
$enddefinitions $end
$comment Show the parameter values. $end
$dumpall
$end
#0
$dumpvars
x+
x*
x)
x(
bx '
bx &
x%
x$
x#
0"
0!
$end
#5
0$
1#
1!
#10
0!
#15
0"
0*
0(
0+
0)
0#
1$
1!
#20
0!
#25
0$
1!
#30
0!
#35
1!
#40
0!
#45
1$
1!
#50
0!
#55
1!
#60
0!
#65
0$
1!
#70
0!
#75
1$
1!
#80
0!
#85
0$
1!
#90
0!
#95
1!
#100
0!
#105
1!
#110
0!
#115
1$
1!
#120
0!
#125
b1 &
1"
1(
x$
1!
