wave.vcd
$date
	Thu Mar 13 13:07:53 2025
$end
$version
	Icarus Verilog
$end
$timescale
	1ps
$end
$scope module tb $end
$scope module stim1 $end
$var wire 1 ! clk $end
$upscope $end
$upscope $end
$scope module tb $end
$var wire 1 " tb_mismatch $end
$upscope $end
$scope module tb $end
$var wire 1 # do_sub $end
$upscope $end
$scope module tb $end
$var wire 8 $ a [7:0] $end
$upscope $end
$scope module tb $end
$var wire 8 % b [7:0] $end
$upscope $end
$scope module tb $end
$var wire 8 & out_ref [7:0] $end
$upscope $end
$scope module tb $end
$var wire 8 ' out_dut [7:0] $end
$upscope $end
$scope module tb $end
$var wire 1 ( result_is_zero_ref $end
$upscope $end
$scope module tb $end
$var wire 1 ) result_is_zero_dut $end
$upscope $end
$enddefinitions $end
$comment Show the parameter values. $end
$dumpall
$end
#0
$dumpvars
0)
0(
b1100101 '
b1100101 &
b10111011 %
b10101010 $
0#
0"
0!
$end
#5
1!
#10
0!
#15
1!
#20
0!
#25
0"
b11101111 &
b11101111 '
1#
1!
#30
0!
#35
0"
b110 &
b110 '
0#
b11 $
b11 %
1!
#40
0!
#45
0"
1(
b0 &
1)
b0 '
1#
1!
#50
0"
0(
b111 &
0)
b111 '
0#
b100 %
0!
#55
1!
#60
0"
b11111111 &
b11111111 '
1#
0!
#65
0"
1(
b0 &
1)
b0 '
0#
b11111101 $
b11 %
1!
#70
0!
#75
0"
0(
b11111010 &
0)
b11111010 '
1#
1!
#80
0"
b1 &
b1 '
0#
b100 %
0!
#85
1!
#90
0"
b11111001 &
b11111001 '
1#
0!
#95
0"
b101100 &
b101100 '
b10011010 $
b10010010 %
0#
1!
#100
0"
b1101111 &
b1101111 '
b10101111 $
b1000000 %
1#
0!
#105
0"
b1100111 &
b1100111 '
b1101011 $
b100 %
1!
#110
0"
b11111010 &
b11111010 '
b101011 $
b110001 %
0!
#115
0"
b110111 &
b110111 '
b10111101 $
b10000110 %
1!
#120
0"
b110 &
b110 '
b11001100 $
b11000110 %
0!
#125
0"
b10000 &
b10000 '
b1000010 $
b110010 %
1!
#130
0"
b10110010 &
b10110010 '
b10101001 $
b1001 %
0#
0!
#135
0"
b1110001 &
b1110001 '
b11110001 $
b10000000 %
1#
1!
#140
0"
b1100000 &
b1100000 '
b11100110 $
b10000110 %
0!
#145
0"
b10110011 &
b10110011 '
b11111000 $
b10111011 %
0#
1!
#150
0"
b1001000 &
b1001000 '
b11100110 $
b10011110 %
1#
0!
#155
0"
b110101 &
b110101 '
b101011 $
b11110110 %
1!
#160
0"
b11000001 &
b11000001 '
b11111011 $
b11000110 %
0#
0!
#165
0"
b11111000 &
b11111000 '
b11110100 $
b11111100 %
1#
1!
#170
0"
b11110101 &
b11110101 '
b10010010 $
b1100011 %
0#
0!
#175
0"
b1100000 &
b1100000 '
b11000010 $
b1100010 %
1#
1!
#180
0"
b111110 &
b111110 '
b11101001 $
b1010101 %
0#
0!
#185
0"
b1001 &
b1001 '
b11111011 $
b11110010 %
1#
1!
#190
0"
b11111110 &
b11111110 '
b111001 $
b111011 %
0!
#195
0"
b1110100 &
b1110100 '
b1101011 $
b1001 %
0#
1!
#200
0"
b10100110 &
b10100110 '
b1101101 $
b11000111 %
1#
0!
#205
0"
b101101 &
b101101 '
b110100 $
b11111001 %
0#
1!
#210
0"
b10110010 &
b10110010 '
b1001011 $
b1100111 %
0!
#215
0"
b10110001 &
b10110001 '
b111101 $
b1110100 %
1!
#220
0"
b11000101 &
b11000101 '
b100111 $
b1100010 %
1#
0!
#225
0"
b11010010 &
b11010010 '
b100100 $
b10101110 %
0#
1!
#230
0"
b10110110 &
b10110110 '
b10100 $
b1011110 %
1#
0!
#235
0"
b10010110 &
b10010110 '
b10101100 $
b10110 %
1!
#240
0"
b1100001 &
b1100001 '
b10010011 $
b110010 %
0!
#245
0"
b10000000 &
b10000000 '
b10110001 $
b110001 %
1!
#250
0"
b1001000 &
b1001000 '
b11000011 $
b10000101 %
0#
0!
#255
0"
b11010001 &
b11010001 '
b10010001 $
b1000000 %
1!
#260
0"
b10100000 &
b10100000 '
b10000 $
b10010000 %
0!
#265
0"
b11110111 &
b11110111 '
b100010 $
b11010101 %
1!
#270
0"
b11000 &
b11000 '
b1100110 $
b1001110 %
1#
0!
#275
0"
b1101010 &
b1101010 '
b11111 $
b1001011 %
0#
1!
#280
0"
b11010011 &
b11010011 '
b11011100 $
b1001 %
1#
0!
#285
0"
b10110 &
b10110 '
b11100 $
b110 %
1!
#290
0"
b11000010 &
b11000010 '
b11101011 $
b101001 %
0!
#295
0"
b111001 &
b111001 '
b11101110 $
b10110101 %
1!
#300
0"
b10101011 &
b10101011 '
b10101 $
b1101010 %
0!
#305
0"
b10100110 &
b10100110 '
b10100101 $
b1 %
0#
1!
#310
0"
b1110110 &
b1110110 '
b11111 $
b1010111 %
0!
#315
0"
b1100110 &
b1100110 '
b11110100 $
b10001110 %
1#
1!
#320
0"
b1010010 &
b1010010 '
b10111001 $
b1100111 %
0!
#325
0"
b10010011 &
b10010011 '
b100100 $
b10010001 %
1!
#330
0"
b110111 &
b110111 '
b10110010 $
b10000101 %
0#
0!
#335
0"
b11101010 &
b11101010 '
b10000101 $
b1100101 %
1!
#340
0"
b11000100 &
b11000100 '
b10100110 $
b11110 %
0!
#345
0"
b1010111 &
b1010111 '
b1011110 $
b11111001 %
1!
#350
0"
b11110101 &
b11110101 '
b110000 $
b11000101 %
0!
#355
0"
b10111001 &
b10111001 '
b1011001 $
b10100000 %
1#
1!
#360
0"
b110 &
b110 '
b10011010 $
b1101100 %
0#
0!
#365
0"
b110101 &
b110101 '
b1111001 $
b10111100 %
1!
#370
0"
b11000101 &
b11000101 '
b1001 $
b1000100 %
1#
0!
#375
0"
b10010001 &
b10010001 '
b10000110 $
b11110101 %
1!
#380
0"
b1101 &
b1101 '
b110010 $
b11011011 %
0#
0!
#385
0"
b11011111 &
b11011111 '
b11111100 $
b11100011 %
1!
#390
0"
b1100000 &
b1100000 '
b10001001 $
b11010111 %
0!
#395
0"
b11011111 &
b11011111 '
b10000001 $
b1011110 %
1!
#400
0"
b10000011 &
b10000011 '
b11101110 $
b10010101 %
0!
#405
0"
b11001000 &
b11001000 '
b11001101 $
b101 %
1#
1!
#410
0"
b10100111 &
b10100111 '
b11011111 $
b111000 %
0!
#415
0"
b1011110 &
b1011110 '
b100000 $
b11000010 %
1!
#420
0"
b10000011 &
b10000011 '
b101010 $
b10100111 %
0!
#425
0"
b10011 &
b10011 '
b110000 $
b11101 %
1!
#430
0"
b10110110 &
b10110110 '
b11001 $
b10011101 %
0#
0!
#435
0"
b11011000 &
b11011000 '
b10011001 $
b111111 %
1!
#440
0"
b10011011 &
b10011011 '
b100101 $
b10001010 %
1#
0!
#445
0"
b11010101 &
b11010101 '
b11001101 $
b11111000 %
1!
#450
0"
b111001 &
b111001 '
b100101 $
b11101100 %
0!
#455
0"
b110100 &
b110100 '
b10000011 $
b10110001 %
0#
1!
#460
0"
b10100011 &
b10100011 '
b11111101 $
b10100110 %
0!
#465
0"
b11011011 &
b11011011 '
b10101010 $
b11001111 %
1#
1!
#470
0"
b1001 &
b1001 '
b11010000 $
b11000111 %
0!
#475
0"
b11010000 &
b11010000 '
b11010100 $
b11111100 %
0#
1!
#480
0"
b1010101 &
b1010101 '
b10110000 $
b1011011 %
1#
0!
#485
0"
b11011100 &
b11011100 '
b101011 $
b1001111 %
1!
#490
0"
b11111000 &
b11111000 '
b11001010 $
b101110 %
0#
0!
#495
0"
b10110011 &
b10110011 '
b11100000 $
b101101 %
1#
1!
#500
0"
b1010111 &
b1010111 '
b11011 $
b11000100 %
0!
#505
0"
b11110101 &
b11110101 '
b11001 $
b100100 %
1!
#510
0"
b111 &
b111 '
b10011111 $
b1101000 %
0#
0!
#515
0"
b11110101 &
b11110101 '
b1100000 $
b1101011 %
1#
1!
#520
0"
b11010110 &
b11010110 '
b11111110 $
b101000 %
0!
#525
0"
b1100010 &
b1100010 '
b10010111 $
b11001011 %
0#
1!
#530
0"
b1000101 &
b1000101 '
b10111111 $
b10000110 %
0!
#535
0"
b11001000 &
b11001000 '
b1100111 $
b1100001 %
1!
#540
0"
b11011010 &
b11011010 '
b11110110 $
b11100100 %
0!
#545
0"
b11110010 &
b11110010 '
b101101 $
b111011 %
1#
1!
#550
0"
b11011000 &
b11011000 '
b1110110 $
b10011110 %
0!
#555
0"
b11110110 &
b11110110 '
b1101101 $
b10001001 %
0#
1!
#560
0"
b10111111 &
b10111111 '
b10000000 $
b111111 %
0!
#565
0"
b1010 &
b1010 '
b11000000 $
b10110110 %
1#
1!
#570
0"
b1010111 &
b1010111 '
b11110011 $
b10011100 %
0!
#575
0"
b10111000 &
b10111000 '
b1000111 $
b10001111 %
1!
#580
0"
b10010010 &
b10010010 '
b11111011 $
b1101001 %
0!
#585
0"
b11010101 &
b11010101 '
b10010111 $
b11000010 %
1!
#590
0"
b10000000 &
b10000000 '
b1000100 $
b111100 %
0#
0!
