wave.vcd
$date
	Sun Mar  2 01:42:19 2025
$end
$version
	Icarus Verilog
$end
$timescale
	1ps
$end
$scope module tb $end
$scope module stim1 $end
$var wire 1 ! clk $end
$upscope $end
$upscope $end
$scope module tb $end
$var wire 1 " tb_mismatch $end
$upscope $end
$scope module tb $end
$var reg 1 ! clk $end
$upscope $end
$scope module tb $end
$var wire 1 # areset $end
$upscope $end
$scope module tb $end
$var wire 1 $ bump_left $end
$upscope $end
$scope module tb $end
$var wire 1 % bump_right $end
$upscope $end
$scope module tb $end
$var wire 1 & ground $end
$upscope $end
$scope module tb $end
$var wire 1 ' dig $end
$upscope $end
$scope module tb $end
$var wire 1 ( walk_left_ref $end
$upscope $end
$scope module tb $end
$var wire 1 ) walk_left_dut $end
$upscope $end
$scope module tb $end
$var wire 1 * walk_right_ref $end
$upscope $end
$scope module tb $end
$var wire 1 + walk_right_dut $end
$upscope $end
$scope module tb $end
$var wire 1 , aaah_ref $end
$upscope $end
$scope module tb $end
$var wire 1 - aaah_dut $end
$upscope $end
$scope module tb $end
$var wire 1 . digging_ref $end
$upscope $end
$scope module tb $end
$var wire 1 / digging_dut $end
$upscope $end
$enddefinitions $end
$comment Show the parameter values. $end
$dumpall
$end
#0
$dumpvars
0/
0.
0-
0,
0+
0*
1)
1(
0'
1&
0%
0$
1#
0"
0!
$end
#5
1!
#10
0!
#15
0#
1!
#20
0!
#25
1!
#30
0!
#35
1!
#40
0!
#45
1!
#50
1#
0!
#55
1!
#60
0!
#65
1#
1!
#70
0!
#75
0#
1!
#80
0!
#85
1!
#90
0!
#95
1!
#100
0!
#105
1'
1!
#110
0!
#115
0"
1.
1/
0)
0(
0'
1!
#120
0!
#125
1"
0/
1)
1$
1!
#130
0!
#135
1+
0)
0$
1!
#140
0!
#145
0&
1!
#150
0!
#155
0"
1,
0.
1-
0+
1!
#160
0!
#165
1!
#170
0!
#175
1&
1'
1!
#180
0!
#185
0-
1+
1"
0,
1(
0'
1!
#190
0!
#195
1!
#200
0!
#205
1!
#210
0!
#215
1!
#220
0!
#225
1'
1$
1!
#230
0'
0!
#235
0"
0(
1*
1'
0$
1!
#240
0'
0!
#245
1%
1!
#250
0%
0!
#255
1'
1$
1!
#260
0'
0$
0!
#265
1%
1!
#270
0%
1$
0!
#275
1'
1!
#280
0'
0$
0!
#285
0&
1!
#290
1&
1%
0!
#295
0"
0+
1)
1(
0*
0%
1!
#300
1'
1$
0!
#305
1/
0)
0"
1.
0(
0$
1!
#310
0'
0!
#315
1"
0/
1)
1!
#320
1$
0!
#325
1+
0)
1!
#330
0$
0!
#335
1%
1!
#340
1$
0!
#345
0+
1)
0%
1!
#350
0$
0!
#355
1%
1!
#360
1$
0!
#365
1+
0)
1!
#370
0%
0!
#375
1'
1!
#380
0'
0$
0!
#385
1!
#390
1'
1%
0!
#395
0"
1/
0+
0'
0%
1!
#400
0!
#405
1"
0/
1+
1$
1!
#410
1%
0$
0!
#415
0+
1)
1'
0%
1!
#420
0&
0'
0!
#425
0"
1-
0)
1,
0.
1'
1%
1!
#430
1&
0'
0%
1$
0!
#435
0"
0,
0-
1)
1(
0$
1!
#440
1%
0!
#445
0%
1!
#450
0!
#455
1'
1!
#460
0'
1%
0!
#465
0%
1!
#470
0!
#475
1$
1!
#480
1%
0!
#485
1+
0)
0"
0(
1*
0%
0$
1!
#490
1'
1%
0!
#495
0"
1.
1/
0+
0*
0'
0%
1!
#500
0!
#505
1"
0/
1+
1%
1$
1!
#510
0%
0$
0!
#515
1'
1%
1!
#520
0'
0%
0!
#525
1!
#530
1%
1$
0!
#535
0+
1)
1'
0%
0$
1!
#540
0'
0!
#545
1!
#550
1'
0!
#555
0"
1/
0)
0'
1!
#560
0!
#565
1"
0/
1)
1!
#570
0!
#575
1$
1!
#580
0!
#585
1+
0)
0$
1!
#590
0!
#595
1$
1!
#600
1'
0$
0!
#605
0"
1/
0+
0'
1$
1!
#610
0$
0!
#615
1"
0/
1+
1!
#620
0!
#625
0&
1!
#630
1&
0!
#635
1!
#640
1$
0!
#645
0$
1!
#650
0!
#655
1!
#660
1'
1%
0!
#665
0"
1/
0+
0'
0%
1!
#670
1'
1$
0!
#675
0$
1!
#680
0'
1%
1$
0!
#685
1"
0/
1+
0&
1'
0%
0$
1!
#690
1&
0'
0!
#695
1'
1!
#700
0'
1%
0!
#705
0+
1)
0%
1!
#710
1'
0!
#715
0"
1/
0)
0'
1!
#720
1'
0!
#725
0'
1!
#730
1%
0!
#735
1"
0/
1)
1$
1!
#740
0%
0$
0!
#745
1'
1!
#750
0"
0.
1(
1#
0'
0!
#755
0#
1!
#760
0!
#765
1$
1!
#770
0$
0!
#775
1#
1%
1!
#780
0#
0%
1$
0!
#785
1+
0)
0"
0(
1*
0&
1'
1!
#790
1&
0'
0!
#795
0&
0$
1!
#800
1&
0!
#805
1'
1!
#810
0"
0+
1)
1(
0*
1#
0'
1$
0!
#815
0#
0&
0$
1!
#820
1&
1'
1%
0!
#825
0"
1.
1/
0)
0(
1!
#830
0'
0%
0!
#835
1"
0/
1)
1!
#840
0!
#845
1!
#850
1'
0!
#855
0"
1/
0)
0'
1$
1!
#860
0$
0!
#865
1"
0/
1)
1$
1!
#870
0$
0!
#875
1!
#880
1$
0!
#885
1+
0)
0&
1!
#890
1&
0$
0!
#895
1!
#900
1'
0!
#905
0"
1/
0+
0'
1!
#910
1'
0!
#915
0'
1$
1!
#920
0$
0!
#925
1"
0/
1+
1'
1!
#930
0'
0!
#935
1!
#940
0!
#945
1$
1!
#950
0$
0!
#955
1'
1$
1!
#960
0&
0'
0$
0!
#965
0"
1,
0.
1-
0+
1&
1%
1!
#970
1'
0%
1$
0!
#975
0-
1+
1"
0,
1(
0&
0'
0$
1!
#980
1&
0!
#985
1!
#990
1'
1$
0!
#995
0"
1/
0+
1.
0(
0$
1!
#1000
0&
0'
1%
0!
#1005
0"
1,
0.
0/
1-
1&
1'
0%
1!
#1010
0'
0!
#1015
0-
1+
1"
0,
1(
1!
#1020
0!
#1025
1%
1$
1!
#1030
1'
0%
0!
#1035
0"
1/
0+
1.
0(
0'
0$
1!
#1040
1'
1%
0!
#1045
0/
1)
0"
0.
1(
1#
0%
1!
#1050
0#
0!
#1055
0"
1.
1/
0)
0(
1!
#1060
0'
1$
0!
#1065
1"
0/
1)
0$
1!
#1070
1%
0!
#1075
0%
1!
#1080
0!
#1085
1'
1$
1!
#1090
0&
0$
0!
#1095
0"
1,
0.
1-
0)
1&
0'
1!
#1100
1'
0!
#1105
0-
1)
0"
0,
1(
0'
1%
1$
1!
#1110
0%
0$
0!
#1115
1%
1$
1!
#1120
0%
0!
#1125
1+
0)
0"
0(
1*
0$
1!
#1130
0!
#1135
0+
1)
0"
1(
0*
1#
0&
1!
#1140
0#
1&
0!
#1145
1!
#1150
0!
#1155
1!
#1160
1#
0!
#1165
0#
1%
1$
1!
#1170
0%
0$
0!
#1175
1!
#1180
1%
0!
#1185
0&
0%
1!
#1190
0!
#1195
0"
1,
1-
0)
0(
1&
1!
#1200
0!
#1205
0-
1)
0"
0,
1(
0&
1!
#1210
1&
0!
#1215
0&
1$
1!
#1220
0$
0!
#1225
1-
0)
0"
1,
0(
1&
1!
#1230
1%
1$
0!
#1235
0"
0,
0-
1)
1(
0&
0%
0$
1!
#1240
1&
0!
#1245
1#
1'
1%
1!
#1250
0#
0'
0!
#1255
0&
1'
0%
1$
1!
#1260
1&
0'
0$
0!
#1265
1'
1!
#1270
0'
1%
0!
#1275
0%
1!
#1280
1%
0!
#1285
0%
1!
#1290
1#
1%
1$
0!
#1295
0#
0%
0$
1!
#1300
1$
0!
#1305
1+
0)
0"
0(
1*
1!
#1310
0$
0!
#1315
1!
#1320
1%
0!
#1325
0+
1)
0"
1(
0*
0%
1!
#1330
1%
0!
#1335
0%
1!
#1340
0!
#1345
1!
#1350
1'
1$
0!
#1355
0"
1.
1/
0)
0(
0'
0$
1!
#1360
0!
#1365
1"
0/
1)
1'
1$
1!
#1370
0'
1%
0$
0!
#1375
0%
1!
#1380
0!
#1385
1$
1!
#1390
1'
0$
0!
#1395
0"
1/
0)
0'
1%
1!
#1400
0!
#1405
1"
0/
1)
1'
0%
1!
#1410
0'
0!
#1415
1'
1!
#1420
0'
0!
#1425
1%
1$
1!
#1430
0%
0$
0!
#1435
1!
#1440
1'
0!
#1445
0"
1/
0)
1$
1!
#1450
0'
0!
#1455
1"
0/
1)
0$
1!
#1460
0!
#1465
1!
#1470
1$
0!
#1475
1+
0)
0$
1!
#1480
1$
0!
#1485
1!
#1490
1'
1%
0$
0!
#1495
0"
1/
0+
0%
1!
#1500
0'
0!
#1505
1"
0/
1+
0&
1%
1!
#1510
1&
0%
0!
#1515
1%
1$
1!
#1520
1'
0!
#1525
0"
1/
0+
0%
0$
1!
#1530
0'
1%
1$
0!
#1535
1"
0/
1+
0%
0$
1!
#1540
1'
1%
0!
#1545
0"
1/
0+
0'
0%
1$
1!
#1550
0$
0!
#1555
1"
0/
1+
1!
#1560
0!
#1565
1!
#1570
0!
#1575
0"
0+
1)
0.
1(
1#
0&
1!
#1580
0#
1&
0!
#1585
1#
1$
1!
#1590
0#
0$
0!
#1595
1#
1%
1$
1!
#1600
0#
1'
0%
0$
0!
#1605
0"
1.
1/
0)
0(
0'
1!
#1610
1$
0!
#1615
1"
0/
1)
0$
1!
#1620
1%
1$
0!
#1625
1+
0)
0%
0$
1!
#1630
1$
0!
#1635
1%
0$
1!
#1640
0%
0!
#1645
1!
#1650
0!
#1655
1!
#1660
0!
#1665
1$
1!
#1670
0$
0!
#1675
1'
1!
#1680
0'
0!
#1685
1$
1!
#1690
0"
0+
1)
0.
1(
1#
0!
#1695
0#
1'
1!
#1700
0'
0!
#1705
1+
0)
0"
0(
1*
0$
1!
#1710
1'
1%
0!
#1715
0"
1.
1/
0+
0*
1!
#1720
0%
0!
#1725
0'
1!
#1730
0"
0.
0/
1)
1(
1#
0!
#1735
0#
0&
1$
1!
#1740
1&
0$
0!
#1745
1$
1!
#1750
0$
0!
#1755
1$
1!
#1760
0&
0!
#1765
0"
1,
1-
0)
0(
1&
1'
1!
#1770
0$
0!
#1775
0-
1)
0"
0,
1(
0'
1!
#1780
1'
1%
0!
#1785
0"
1.
1/
0)
0(
0&
0%
1!
#1790
1&
0'
0!
#1795
1"
0/
1)
1$
1!
#1800
0$
0!
#1805
0&
1!
#1810
1&
1'
0!
#1815
0"
1/
0)
0&
0'
1!
#1820
1&
1$
0!
#1825
0.
1(
0"
0/
1)
1#
0$
1!
#1830
0#
1%
1$
0!
#1835
0"
1+
0)
0(
1*
0&
1!
#1840
1'
0%
0$
0!
#1845
1-
0+
0"
1,
0*
1&
0'
1$
1!
#1850
1'
0$
0!
#1855
0"
0,
0-
1+
1*
0'
1!
#1860
0!
#1865
1$
1!
#1870
0$
0!
#1875
1%
1!
#1880
0%
0!
#1885
1!
#1890
1$
0!
#1895
1%
0$
1!
#1900
0%
0!
#1905
1!
#1910
1'
1%
0!
#1915
0"
1.
1/
0+
0*
0'
0%
1!
#1920
0&
0!
#1925
0"
0/
1-
1,
0.
1&
1!
#1930
0!
#1935
0"
0,
0-
1+
1*
0&
1!
#1940
1&
0!
#1945
0&
1!
#1950
1&
0!
#1955
1%
1$
1!
#1960
0%
0$
0!
#1965
1'
1$
1!
#1970
0'
0$
0!
#1975
1%
1!
#1980
0%
0!
#1985
0&
1!
#1990
1&
0!
#1995
1$
1!
#2000
1%
0$
0!
#2005
0+
1)
0"
1(
0*
1!
#2010
1'
0%
0!
#2015
0"
1.
1/
0)
0(
0'
1$
1!
#2020
0!
#2025
1"
0/
1)
0&
1'
0$
1!
#2030
1&
0'
0!
#2035
1'
1$
1!
#2040
1%
0$
0!
#2045
0"
1/
0)
0%
1!
#2050
0'
1%
1$
0!
#2055
1"
0/
1)
0&
0%
0$
1!
#2060
1&
0!
#2065
0&
1!
#2070
1$
0!
#2075
0"
1,
0.
1-
0)
1&
0$
1!
#2080
1%
1$
0!
#2085
0-
1)
0"
0,
1(
0%
1!
#2090
1%
0$
0!
#2095
1'
0%
1$
1!
#2100
0!
#2105
1/
0)
0"
1.
0(
0'
0$
1!
#2110
1'
0!
#2115
0'
1%
1!
#2120
1'
0%
0!
#2125
0'
1!
#2130
1$
0!
#2135
1"
0/
1)
0&
1%
1!
#2140
1&
1'
0%
0$
0!
#2145
0"
1/
0)
0&
1%
1$
1!
#2150
1&
0'
0%
0$
0!
#2155
1"
0/
1)
1!
#2160
1'
0!
#2165
0"
1/
0)
1%
1!
#2170
0'
0%
0!
#2175
1"
0/
1)
1!
#2180
1%
1$
0!
#2185
1+
0)
0$
1!
#2190
0&
0%
0!
#2195
0"
1,
0.
1-
0+
1&
1'
1!
#2200
0'
1$
0!
#2205
0-
1+
1"
0,
1(
0$
1!
#2210
1'
1%
0!
#2215
0"
1.
1/
0+
0(
0'
0%
1!
