wave.vcd
$date
	Wed Mar 12 23:43:35 2025
$end
$version
	Icarus Verilog
$end
$timescale
	1ps
$end
$scope module tb $end
$scope module stim1 $end
$var wire 1 ! clk $end
$upscope $end
$upscope $end
$scope module tb $end
$var wire 1 " tb_mismatch $end
$upscope $end
$scope module tb $end
$var wire 1 # d $end
$upscope $end
$scope module tb $end
$var wire 1 $ done_counting $end
$upscope $end
$scope module tb $end
$var wire 1 % ack $end
$upscope $end
$scope module tb $end
$var wire 10 & state [9:0] $end
$upscope $end
$scope module tb $end
$var wire 1 ' B3_next_ref $end
$upscope $end
$scope module tb $end
$var wire 1 ( B3_next_dut $end
$upscope $end
$scope module tb $end
$var wire 1 ) S_next_ref $end
$upscope $end
$scope module tb $end
$var wire 1 * S_next_dut $end
$upscope $end
$scope module tb $end
$var wire 1 + S1_next_ref $end
$upscope $end
$scope module tb $end
$var wire 1 , S1_next_dut $end
$upscope $end
$scope module tb $end
$var wire 1 - Count_next_ref $end
$upscope $end
$scope module tb $end
$var wire 1 . Count_next_dut $end
$upscope $end
$scope module tb $end
$var wire 1 / Wait_next_ref $end
$upscope $end
$scope module tb $end
$var wire 1 0 Wait_next_dut $end
$upscope $end
$scope module tb $end
$var wire 1 1 done_ref $end
$upscope $end
$scope module tb $end
$var wire 1 2 done_dut $end
$upscope $end
$scope module tb $end
$var wire 1 3 counting_ref $end
$upscope $end
$scope module tb $end
$var wire 1 4 counting_dut $end
$upscope $end
$scope module tb $end
$var wire 1 5 shift_ena_ref $end
$upscope $end
$scope module tb $end
$var wire 1 6 shift_ena_dut $end
$upscope $end
$enddefinitions $end
$comment Show the parameter values. $end
$dumpall
$end
#0
$dumpvars
06
05
04
03
02
01
00
0/
0.
0-
0,
0+
0*
0)
0(
0'
b0 &
0%
0$
0#
0"
0!
$end
#5
1"
1-
15
16
b10000000 &
1#
1!
#10
16
0#
1%
0!
#15
16
1#
1!
#20
0-
05
1,
06
b100 &
0!
#25
0"
1)
11
12
b1000000000 &
1*
0,
0#
1!
#30
1-
15
01
16
b10000000 &
0/
1"
0)
02
0*
1#
1$
0%
0!
#35
0-
05
1,
b100 &
06
0$
1%
1!
#40
15
1'
16
b1000000 &
0*
0,
0#
0!
#45
05
0'
1,
b100 &
06
1#
1!
#50
0"
15
16
0,
b100000 &
0!
#55
1/
1"
05
11
12
b1000000000 &
06
0#
1$
0%
1!
#60
1)
1"
0/
01
02
b1 &
0!
#65
0"
1*
b1000 &
0$
1!
#70
0)
1"
1(
0*
1#
0!
#75
0"
1)
11
1*
12
b1000000000 &
0(
1%
1!
#80
1)
1"
01
b1 &
02
0*
0#
1$
0!
#85
0)
15
1'
16
b1000000 &
0$
0%
1!
#90
1)
05
0'
1,
b10 &
06
1$
0!
#95
0)
1"
1*
0,
1#
1!
#100
1(
b1000 &
0*
0$
1%
0!
#105
15
16
b100000 &
0"
0)
0*
0(
0#
1$
1!
#110
1"
05
1*
b100 &
06
0%
0!
#115
0"
1)
11
12
b1000000000 &
0,
1*
1#
0$
1%
1!
#120
1)
1"
01
b1 &
02
0*
0#
1$
0!
#125
0"
0)
1/
13
10
14
b100000000 &
0%
1!
#130
1)
0/
1"
03
04
00
b1 &
0!
#135
0"
0)
15
16
b10000 &
0$
1%
1!
#140
1/
1"
05
11
12
b1000000000 &
06
0%
0!
#145
15
01
1'
16
b1000000 &
1"
0/
0)
0*
02
1$
1%
1!
#150
16
1#
0%
0!
#155
0"
0'
b10000 &
16
0$
1!
#160
1)
0"
05
1*
b1000 &
06
0#
1$
1%
0!
#165
15
16
b100000 &
0)
0"
0(
0*
1#
0$
1!
#170
b10000 &
16
0#
1$
0!
#175
1"
05
1*
b10 &
06
1#
0%
1!
#180
1)
1,
0*
0#
0$
1%
0!
#185
0"
0)
1/
13
10
14
b100000000 &
0,
1$
0%
1!
#190
0/
0"
15
03
16
b100000 &
04
00
1#
1%
0!
#195
1)
0"
05
1*
b1000 &
06
0#
0$
0%
1!
#200
15
16
b10000 &
0)
0"
0(
0*
1#
1$
1%
0!
#205
1"
1-
b10000000 &
16
0#
1!
#210
0-
05
1*
b100 &
06
0$
0!
#215
0"
15
16
b100000 &
0,
0*
1#
1$
1!
#220
b10000 &
16
0%
0!
#225
16
0#
1!
#230
b100000 &
16
1#
1%
0!
#235
1"
05
1*
b100 &
06
0#
0%
1!
#240
1(
b1000 &
0,
0*
1#
0$
1%
0!
#245
0"
15
16
b100000 &
0(
1$
1!
#250
b10000 &
16
0$
0!
#255
1)
0"
05
1*
b1000 &
06
0#
1$
1!
#260
1+
1,
b1 &
0)
0"
0(
0*
1#
0!
#265
1-
13
14
b100000000 &
0)
1"
0+
0,
0#
0$
0%
1!
#270
15
03
1'
16
b1000000 &
1"
0-
0/
00
04
1#
1$
0!
#275
0"
1/
05
13
0'
10
14
b100000000 &
06
0#
1!
#280
1)
0/
1"
03
1,
b10 &
04
00
1%
0!
#285
1-
15
16
b10000000 &
0)
1"
0*
0,
1#
1!
#290
0-
1'
16
b1000000 &
0!
#295
05
0'
1*
06
b10 &
1!
#300
0"
15
16
b10000 &
0*
0%
0!
#305
1)
0"
05
11
1*
12
b1000000000 &
06
0#
0$
1%
1!
#310
15
01
16
b100000 &
0/
0"
0)
02
0*
1$
0%
0!
#315
16
1#
0$
1%
1!
#320
1"
1'
b1000000 &
16
0#
0!
#325
1-
1"
05
13
0'
14
b100000000 &
06
0%
1!
#330
15
03
16
b10000 &
0"
0-
0/
00
04
1$
1%
0!
#335
1"
1'
b1000000 &
16
1#
0$
0%
1!
#340
05
0'
1(
b1000 &
06
1%
0!
#345
15
1'
16
b1000000 &
0(
1$
0%
1!
#350
0"
0'
b10000 &
16
1%
0!
#355
16
0%
1!
#360
1-
1"
05
13
14
b100000000 &
06
0#
0$
1%
0!
#365
0-
03
1*
b10 &
04
1#
0%
1!
#370
0!
#375
1-
15
16
b10000000 &
0)
0,
0*
0#
1$
1%
1!
#380
0"
1)
0-
05
1*
b1000 &
06
0$
0!
#385
1+
1,
b1 &
0)
0"
0(
0*
1#
1$
0%
1!
#390
1"
0+
1(
0,
b1000 &
0!
#395
1,
0(
b100 &
1!
#400
1*
b10 &
0,
1%
0!
#405
15
1'
16
b1000000 &
0*
0$
0%
1!
#410
0"
1)
05
0'
1*
b1000 &
06
0#
0!
#415
1+
1,
b1 &
0)
0"
0(
0*
1#
1$
1%
1!
#420
15
1'
16
b1000000 &
0)
1"
0+
0,
0#
0$
0%
0!
#425
05
0'
1*
b10 &
06
1#
1%
1!
#430
1,
b100 &
0*
0%
0!
#435
0"
15
16
b100000 &
0*
0,
0#
1$
1!
#440
1"
05
1,
b100 &
06
1#
0!
#445
1)
1"
b1 &
0*
0,
0#
1%
1!
#450
b100 &
1"
0)
0+
1,
1#
0%
0!
#455
0"
15
16
b10000 &
0,
0$
1%
1!
#460
1)
0"
05
11
1*
12
b1000000000 &
06
0#
0!
#465
13
01
10
14
b100000000 &
1/
0"
0)
02
0*
1#
1$
0%
1!
#470
0/
1"
03
1,
04
00
b100 &
0!
#475
0"
1+
b1 &
1,
0$
1%
1!
#480
1/
0"
0+
13
10
14
b100000000 &
0,
1$
0%
0!
#485
0/
0"
15
03
16
04
00
b100000 &
1!
#490
1"
05
1*
b10 &
06
1%
0!
#495
1/
11
12
b1000000000 &
0)
0,
0*
0#
0%
1!
#500
0"
0/
1)
1*
12
1#
1%
0!
#505
01
1,
b100 &
0/
1"
0)
02
0*
0%
1!
#510
1(
b1000 &
0,
0$
1%
0!
#515
0"
1)
1*
0(
0#
1!
#520
1,
b100 &
0)
1"
0(
0*
1#
0!
#525
1)
b10 &
0*
1,
0#
1$
1!
#530
b100 &
0)
1"
0*
1,
1#
0$
0%
0!
#535
0"
1/
13
10
14
b100000000 &
0,
1$
1!
#540
1)
03
1,
b10 &
1"
0-
0/
04
00
0#
0$
1%
0!
#545
b100 &
0)
1"
0*
1,
1#
1$
0%
1!
#550
15
1'
16
b1000000 &
0,
1%
0!
#555
1/
1"
05
11
0'
12
b1000000000 &
06
0#
0%
1!
#560
0/
15
01
1'
16
b1000000 &
02
1#
0!
#565
05
0'
1*
b100 &
06
0#
0$
1%
1!
#570
0"
1)
b1000 &
1*
1$
0%
0!
#575
1*
1%
1!
#580
15
1'
16
b1000000 &
0)
1"
0(
0*
1#
0%
0!
#585
05
0'
1*
b10 &
06
0$
1!
#590
b1 &
1)
0,
0*
0#
1$
0!
#595
15
16
b10000 &
0"
0)
0+
0,
1#
1%
1!
#600
1/
0"
05
13
10
14
b100000000 &
06
0#
0%
0!
#605
1)
0/
1"
03
1,
04
00
b10 &
1!
#610
b100 &
0)
1"
0*
1,
1#
0$
0!
#615
1"
1-
15
16
b10000000 &
0*
0,
0#
1$
1!
#620
1"
1-
05
13
14
b100000000 &
06
0$
1%
0!
#625
1)
03
1*
b1000 &
0"
0-
0/
00
04
1$
1!
#630
1-
15
16
b10000000 &
0)
1"
0(
0*
1#
0!
#635
16
0%
1!
#640
0-
05
1*
b10 &
06
1%
0!
#645
1"
b100 &
0)
0,
1*
0#
0$
0%
1!
#650
1)
1"
b1 &
0*
1$
1%
0!
#655
1,
b10 &
0$
0%
1!
#660
b1 &
0,
1$
1%
0!
#665
1(
b1000 &
1"
0)
0+
0,
1#
0%
1!
#670
15
1'
16
b1000000 &
0(
0$
0!
#675
1)
1"
05
0'
b1 &
06
0#
1%
1!
#680
0)
1-
15
16
b10000000 &
0!
#685
1)
0-
05
1,
b10 &
06
0%
1!
#690
15
16
b100000 &
0)
0"
0*
0,
1#
1$
0!
#695
1)
1"
05
b1 &
06
0#
1!
#700
0)
1"
1*
b100 &
1%
0!
#705
1)
1"
b1 &
0*
0%
1!
#710
0"
1*
b1000 &
0$
1%
0!
#715
1"
1,
0*
b10 &
1!
#720
0,
b1 &
0!
#725
1(
b1000 &
1"
0)
0+
0,
1#
1$
1!
#730
15
1'
16
0(
b1000000 &
0!
#735
1-
1"
05
13
0'
14
b100000000 &
06
0#
0$
0%
1!
#740
0"
0-
1+
03
1,
b1 &
04
1#
0!
#745
1"
0+
1*
b10 &
0,
1$
1!
#750
0"
15
16
b100000 &
0*
0$
1%
0!
#755
1)
1"
05
1,
b10 &
06
0#
1$
1!
#760
1(
b1000 &
0)
1"
0*
0,
1#
0$
0!
#765
1/
11
12
b1000000000 &
0(
0%
1!
#770
01
1(
b1000 &
1"
0/
0)
0*
02
1$
1%
0!
#775
11
12
b1000000000 &
0"
1)
1*
0(
0#
0$
1!
#780
0!
#785
0)
0"
15
01
16
02
0*
b10000 &
1!
#790
1)
0"
05
1*
b1000 &
06
1$
0%
0!
#795
1"
0)
b100 &
1*
1%
1!
#800
0"
1/
13
10
14
b100000000 &
0*
0%
0!
#805
15
03
16
b10000000 &
1"
1-
0/
04
00
0$
1!
#810
0"
1/
0-
05
13
10
14
b100000000 &
06
1#
1$
0!
#815
15
03
16
b10000 &
0"
0-
0/
04
00
0#
0$
1!
#820
1"
1'
16
b1000000 &
0!
#825
05
0'
1,
b100 &
06
1#
1%
1!
#830
0"
15
16
b100000 &
0,
0%
0!
#835
1-
1"
05
13
14
b100000000 &
06
0#
1!
#840
15
03
16
b10000 &
0"
0-
0/
00
04
1$
0!
#845
b100000 &
16
1#
0$
1%
1!
#850
16
1$
0!
#855
1"
05
1*
b100 &
06
0#
0$
1!
#860
1"
1-
15
16
b10000000 &
0,
0*
1#
0!
#865
0-
05
1,
06
b100 &
1!
#870
0"
1+
b1 &
1,
1$
0!
#875
0"
0+
15
16
b100000 &
0,
0$
0%
1!
#880
1/
0"
05
13
10
14
b100000000 &
06
0#
1$
1%
0!
#885
0/
1"
15
03
1'
16
b1000000 &
04
00
1#
1!
#890
05
0'
1(
b1000 &
06
0$
0%
0!
#895
b100 &
1"
0)
1*
0(
0#
1!
#900
0"
15
16
b10000 &
0*
1$
0!
#905
1"
1-
b10000000 &
16
1#
0$
1%
1!
#910
0"
1)
0-
05
11
1*
12
b1000000000 &
06
0#
1$
0!
#915
1-
15
01
16
b10000000 &
0/
1"
0)
02
0*
1#
0%
1!
#920
0"
0-
b100000 &
16
0#
1%
0!
#925
1)
0"
05
11
1*
12
06
b1000000000 &
1!
#930
0)
0"
15
01
16
b100000 &
02
0*
1#
0$
0!
#935
16
0%
1!
#940
1/
1"
05
11
12
b1000000000 &
06
0#
0!
#945
0"
13
01
10
14
b100000000 &
02
1$
1!
#950
03
1,
b100 &
1"
0-
0/
04
00
1#
0$
1%
0!
#955
0"
15
16
b10000 &
0,
0%
1!
#960
1-
1"
05
13
14
06
b100000000 &
0!
#965
15
03
1'
16
b1000000 &
1"
0-
0/
00
04
1$
1%
1!
#970
05
0'
1,
b100 &
06
0$
0%
0!
#975
15
1'
16
0,
b1000000 &
1!
#980
0"
1)
05
0'
1*
b1000 &
06
0#
1$
0!
#985
1/
11
12
b1000000000 &
0)
1"
0(
0*
1#
1!
#990
1)
1"
0/
01
b1 &
02
0#
0!
#995
0"
0)
15
16
b10000 &
0$
1%
1!
#1000
1"
1-
b10000000 &
16
1#
0!
#1005
16
0%
1!
#1010
0"
0-
b100000 &
16
1$
0!
#1015
1"
05
1,
b100 &
06
0$
1!
#1020
1-
13
14
0,
b100000000 &
0!
#1025
1+
03
1,
b1 &
0"
0-
0/
00
04
1$
1%
1!
#1030
15
16
b10000 &
0)
0"
0+
0,
0#
0$
0!
#1035
1)
0"
05
11
1*
12
b1000000000 &
06
1$
1!
#1040
01
b10 &
0/
1"
0)
02
1*
1#
0$
0%
0!
#1045
1"
1-
15
16
0*
b10000000 &
1!
#1050
16
0#
1%
0!
#1055
0-
05
1*
b10 &
06
1#
0%
1!
#1060
0"
1+
1,
b1 &
0*
1%
0!
#1065
15
16
b100000 &
0)
0"
0+
0,
0#
1$
0%
1!
#1070
1"
1'
b1000000 &
16
0$
1%
0!
#1075
05
0'
1(
b1000 &
06
1#
0%
1!
#1080
15
1'
16
b1000000 &
1"
0)
0*
0(
0#
1$
1%
0!
#1085
0"
1)
05
0'
1*
b1000 &
06
0$
0%
1!
#1090
1"
b1 &
0*
1$
0!
#1095
0"
1*
b1000 &
1%
1!
#1100
0)
1/
0"
13
10
14
b100000000 &
0*
0%
0!
#1105
1"
1-
0/
14
00
0$
1%
1!
#1110
15
03
16
b10000000 &
1"
1-
0/
00
04
1#
1$
0%
0!
#1115
1)
0-
05
b1 &
06
0#
1%
1!
#1120
0"
0)
1/
13
10
14
b100000000 &
0!
#1125
0/
1"
03
1*
b10 &
04
00
1#
1!
#1130
1*
0$
0%
0!
#1135
1(
b1000 &
0*
1%
1!
#1140
0"
1)
1*
0(
0#
0%
0!
#1145
0"
11
12
b1000000000 &
1*
1%
1!
#1150
01
b1 &
0/
1"
1)
02
0*
1$
0%
0!
#1155
1%
1!
#1160
0)
1/
11
12
b1000000000 &
0$
0%
0!
#1165
0/
01
1,
b100 &
02
1#
1$
1!
#1170
0"
1)
11
1*
12
b1000000000 &
0,
1%
0!
#1175
15
01
16
b100000 &
0/
0"
0)
02
0*
0$
0%
1!
#1180
1"
05
1(
b1000 &
06
1$
0!
#1185
0"
1)
1*
0(
0#
1%
1!
#1190
0)
0"
15
16
0*
b10000 &
0!
#1195
1"
1-
b10000000 &
16
0%
1!
#1200
1)
0-
05
1,
b10 &
06
0$
0!
#1205
1(
b1000 &
0)
1"
0*
0,
1#
1$
1!
#1210
b100 &
1"
0)
1*
0(
0#
0$
1%
0!
#1215
1"
1-
15
16
b10000000 &
0,
0*
1#
1$
0%
1!
#1220
0"
0-
b100000 &
16
0#
0$
1%
0!
#1225
b10000 &
16
1#
1$
0%
1!
#1230
16
0$
1%
0!
#1235
1"
05
1*
b10 &
06
0%
1!
#1240
1)
1,
0*
0#
1%
0!
#1245
1(
b1000 &
0)
1"
0*
0,
1#
1$
0%
1!
#1250
0"
15
16
b10000 &
0(
0$
1%
0!
#1255
1-
1"
05
13
14
b100000000 &
06
0#
0%
1!
#1260
03
1*
b10 &
1"
0-
0/
00
04
1#
1$
1%
0!
#1265
1-
13
14
b100000000 &
0*
0$
1!
#1270
15
03
16
b10000 &
0"
0-
0/
00
04
0#
1$
0%
0!
#1275
b100000 &
16
0$
1%
1!
#1280
1"
1-
b10000000 &
16
1$
0!
#1285
0"
0-
b100000 &
16
0%
1!
#1290
1)
1"
05
1,
b10 &
06
1%
0!
#1295
1(
b1000 &
0)
1"
0*
0,
1#
0$
1!
#1300
0"
15
16
b100000 &
0(
1$
0!
#1305
1/
1"
05
11
12
b1000000000 &
06
0#
0%
1!
#1310
0"
0/
15
01
16
02
b10000 &
0!
#1315
1)
1"
05
1,
06
b10 &
1!
#1320
1,
0$
1%
0!
#1325
1-
15
16
b10000000 &
0)
1"
0*
0,
1#
1!
#1330
0"
1)
0-
05
11
1*
12
b1000000000 &
06
0#
0!
#1335
0)
1"
1-
15
01
16
b10000000 &
02
0*
1$
1!
#1340
0-
05
1*
b100 &
06
0$
0%
0!
#1345
1)
1,
b10 &
0*
1$
1!
#1350
0)
1"
1*
0,
b100 &
0!
#1355
0"
15
16
b100000 &
0*
0$
1!
#1360
1-
1"
05
13
14
b100000000 &
06
1#
1%
0!
#1365
03
1,
b100 &
1"
0-
0/
00
04
1$
0%
1!
#1370
1)
b10 &
0*
1,
0#
1%
0!
#1375
0)
1-
15
16
b10000000 &
0,
0$
0%
1!
#1380
0-
05
1(
b1000 &
06
1#
1$
0!
#1385
0"
15
16
b10000 &
0(
0$
1!
#1390
1"
1-
16
b10000000 &
0!
#1395
16
0#
1%
1!
#1400
0-
05
1(
b1000 &
06
1#
0%
0!
#1405
1"
1-
15
16
0(
b10000000 &
1!
#1410
0"
0-
b100000 &
16
0#
1$
0!
#1415
1"
05
1,
b100 &
06
1#
0$
1%
1!
#1420
0"
1/
13
10
14
b100000000 &
0*
0,
0#
1$
0%
0!
#1425
15
03
16
b100000 &
0"
0-
0/
04
00
0$
1!
#1430
1"
05
1,
b100 &
06
1#
1$
1%
0!
#1435
1/
11
12
b1000000000 &
0*
0,
0#
0$
0%
1!
#1440
0/
01
1(
b1000 &
02
1#
0!
#1445
1-
15
16
b10000000 &
1"
0)
0*
0(
0#
1!
#1450
0-
1'
b1000000 &
16
1#
1%
0!
#1455
1-
1"
0'
16
b10000000 &
1!
#1460
0-
1'
b1000000 &
16
0%
0!
#1465
1-
1"
05
13
0'
14
b100000000 &
06
0#
1!
#1470
0"
0-
1)
03
11
1*
12
b1000000000 &
04
1%
0!
#1475
0)
1"
1-
15
01
16
b10000000 &
02
0*
1#
1!
#1480
0"
0-
1+
05
1,
06
b1 &
0!
#1485
15
16
b10000 &
0)
0"
0+
0,
0#
1$
0%
1!
#1490
16
0$
0!
#1495
1)
1"
05
b1 &
06
1$
1!
#1500
11
1*
12
b1000000000 &
0"
1)
0+
0,
1#
1%
0!
