wave.vcd
$date
	Wed Mar  5 23:25:17 2025
$end
$version
	Icarus Verilog
$end
$timescale
	1ps
$end
$scope module tb $end
$scope module stim1 $end
$var wire 1 ! clk $end
$upscope $end
$upscope $end
$scope module tb $end
$var wire 1 " tb_mismatch $end
$upscope $end
$scope module tb $end
$var wire 1 # in $end
$upscope $end
$scope module tb $end
$var wire 10 $ state [9:0] $end
$upscope $end
$scope module tb $end
$var wire 10 % next_state_ref [9:0] $end
$upscope $end
$scope module tb $end
$var wire 10 & next_state_dut [9:0] $end
$upscope $end
$scope module tb $end
$var wire 1 ' out1_ref $end
$upscope $end
$scope module tb $end
$var wire 1 ( out1_dut $end
$upscope $end
$scope module tb $end
$var wire 1 ) out2_ref $end
$upscope $end
$scope module tb $end
$var wire 1 * out2_dut $end
$upscope $end
$enddefinitions $end
$comment Show the parameter values. $end
$dumpall
$end
#0
$dumpvars
0*
0)
0(
0'
b1 &
b0 %
b0 $
x#
1"
0!
$end
#5
1!
#10
0!
#15
0"
b1 %
0#
b1 $
1!
#20
b10 $
0!
#25
b100 $
1!
#30
b1000 $
0!
#35
b10000 $
1!
#40
1"
b100000000 %
b100000 $
0!
#45
b1000000000 %
b1000000 $
1!
#50
b1 %
1)
b10000000 $
0!
#55
0)
1'
b100000000 $
1!
#60
1)
b1000000000 $
0!
#65
0)
0'
b10 %
1#
b1 $
1!
#70
b100 %
b10 $
0!
#75
b1000 %
b100 $
1!
#80
b10000 %
b1000 $
0!
#85
b100000 %
b10000 $
1!
#90
b1000000 %
b100000 $
0!
#95
b10000000 %
b1000000 $
1!
#100
1)
b10000000 $
0!
#105
b10 %
0)
1'
b100000000 $
1!
#110
1)
b1000000000 $
0!
#115
1!
#120
0!
#125
0)
b100000000 $
1!
#130
b10000000 %
1)
0'
b10000000 $
0!
#135
1!
#140
0)
b100000000 %
0#
b100000 $
0!
#145
b100 %
1#
b10 $
1!
#150
b10 %
1'
b100000000 $
0!
#155
1)
b1 %
0#
b1000000000 $
1!
#160
0!
#165
b1 %
0'
b10000000 $
1!
#170
0)
b1000000 %
1#
b100000 $
0!
#175
b100000 %
b10000 $
1!
#180
b1000000000 %
0#
b1000000 $
0!
#185
1'
b10 %
1#
b100000000 $
1!
#190
b100000 %
0'
b10000 $
0!
#195
b10 %
1)
1'
b1000000000 $
1!
#200
0"
0)
0'
b1 %
0#
b1000 $
0!
#205
1"
1'
b100000000 $
1!
#210
0'
b100000 %
1#
b10000 $
0!
#215
b1000 %
b100 $
1!
#220
b100 %
b10 $
0!
#225
b1000000 %
b100000 $
1!
#230
1'
b1 %
0#
b100000000 $
0!
#235
0'
b100 %
1#
b10 $
1!
#240
1)
b1 %
0#
b10000000 $
0!
#245
b1000000000 %
0)
b1000000 $
1!
#250
0!
#255
b1 %
1)
b10000000 $
1!
#260
0)
b10 %
1#
b1 $
0!
#265
1)
b1 %
0#
b10000000 $
1!
#270
b1000000000 %
0)
b1000000 $
0!
#275
0"
b1 %
b10000 $
1!
#280
1"
b10000 %
1#
b1000 $
0!
#285
b100 %
b10 $
1!
#290
0"
b1 %
0#
0!
#295
1"
b1000 %
1#
b100 $
1!
#300
b10000 %
b1000 $
0!
#305
0"
b1 %
0#
b10000 $
1!
#310
1"
1)
1'
b10 %
1#
b1000000000 $
0!
#315
0)
0'
b1 $
1!
#320
0"
b1 %
0#
b1000 $
0!
#325
1"
1)
1'
b10 %
1#
b1000000000 $
1!
#330
0"
0)
0'
b1 %
0#
b10 $
0!
#335
1"
b100 %
1#
1!
#340
0"
b1 %
0#
b1 $
0!
#345
b10000 $
1!
#350
1"
b100 %
1#
b10 $
0!
#355
1'
b1 %
0#
b100000000 $
1!
#360
0'
b100 %
1#
b10 $
0!
#365
b10 %
1)
1'
b1000000000 $
1!
#370
0"
0)
0'
b1 %
0#
b1000 $
0!
#375
1"
b10000 %
1#
1!
#380
0"
b1 %
0#
0!
#385
b100 $
1!
#390
b10000 $
0!
#395
1"
b1000000000 %
b1000000 $
1!
#400
b1000000 %
1#
b100000 $
0!
#405
b10 %
1)
1'
b1000000000 $
1!
#410
0'
b1 %
0#
b10000000 $
0!
#415
0)
b100 %
1#
b10 $
1!
#420
1'
b1 %
0#
b100000000 $
0!
#425
0'
b100 %
1#
b10 $
1!
#430
b10000000 %
b1000000 $
0!
#435
b10000 %
b1000 $
1!
#440
1)
b1 %
0#
b10000000 $
0!
#445
0)
1'
b100000000 $
1!
#450
b100000000 %
0'
b100000 $
0!
#455
b1000000000 %
b1000000 $
1!
#460
1)
1'
b10 %
1#
b1000000000 $
0!
#465
0"
0)
0'
b1 %
0#
b1 $
1!
#470
1"
1)
b10000000 $
0!
#475
0"
0)
b10000 $
1!
#480
1"
b100000000 %
b100000 $
0!
#485
b100000 %
1#
b10000 $
1!
#490
b10000000 %
b1000000 $
0!
#495
b100 %
b10 $
1!
#500
b10 %
1)
1'
b1000000000 $
0!
#505
0"
0)
0'
b1 %
0#
b1 $
1!
#510
1"
b10000000 %
1#
b1000000 $
0!
#515
b1000000000 %
0#
1!
#520
1)
b10000000 %
1#
b10000000 $
0!
#525
0"
0)
b1 %
0#
b10000 $
1!
#530
1"
b10000000 %
1#
b1000000 $
0!
#535
0"
b1 %
0#
b10 $
1!
#540
b100 $
0!
#545
1"
b1000000 %
1#
b100000 $
1!
#550
0"
b1 %
0#
b10000 $
0!
#555
1"
b10 %
1#
b1 $
1!
#560
1'
b1 %
0#
b100000000 $
0!
#565
1)
b1000000000 $
1!
#570
0)
b100000000 $
0!
#575
0"
0'
b10 $
1!
#580
1"
b1000000 %
1#
b100000 $
0!
#585
0"
b1 %
0#
b10000 $
1!
#590
1"
1'
b100000000 $
0!
#595
0"
0'
b10 $
1!
#600
b1 $
0!
#605
1"
b100000 %
1#
b10000 $
1!
#610
b1000000 %
b100000 $
0!
#615
b10000000 %
b1000000 $
1!
#620
b100 %
b10 $
0!
#625
0"
b1 %
0#
b1 $
1!
#630
1"
b100 %
1#
b10 $
0!
#635
1!
#640
0"
b1 %
0#
b1000 $
0!
#645
1"
b10000 %
1#
1!
#650
b1000000000 %
0#
b1000000 $
0!
#655
0"
b1 %
b10000 $
1!
#660
1"
1)
1'
b10 %
1#
b1000000000 $
0!
#665
0"
0)
0'
b1 %
0#
b100 $
1!
#670
1"
1)
b10000000 $
0!
#675
0)
b1000 %
1#
b100 $
1!
#680
0"
b1 %
0#
b10000 $
0!
#685
1"
1)
1'
b1000000000 $
1!
#690
0)
0'
b1000 %
1#
b100 $
0!
#695
b100 %
b10 $
1!
#700
0"
b1 %
0#
b1 $
0!
#705
1"
b1000 %
1#
b100 $
1!
#710
0"
b1 %
0#
0!
#715
b10 $
1!
#720
b10000 $
0!
#725
1"
b1000 %
1#
b100 $
1!
#730
0"
b1 %
0#
0!
#735
1"
b1000 %
1#
1!
#740
0"
b1 %
0#
b10 $
0!
#745
1"
1)
1'
b10 %
1#
b1000000000 $
1!
#750
b1000000 %
0)
0'
b100000 $
0!
#755
b10000000 %
b1000000 $
1!
#760
b1000000 %
b100000 $
0!
#765
b1000000000 %
0#
b1000000 $
1!
#770
b1 %
1)
1'
b1000000000 $
0!
#775
0)
0'
b10000000 %
1#
b1000000 $
1!
#780
b100000000 %
0#
b100000 $
0!
#785
b1000 %
1#
b100 $
1!
#790
1'
b1 %
0#
b100000000 $
0!
#795
1)
b1000000000 $
1!
#800
0)
0'
b10000 %
1#
b1000 $
0!
#805
b10000000 %
b1000000 $
1!
#810
b10 %
b1 $
0!
#815
0"
b1 %
0#
b10000 $
1!
#820
1"
1)
b10000000 $
0!
#825
b1000000000 %
0)
b1000000 $
1!
#830
b1000000 %
1#
b100000 $
0!
#835
b100 %
b10 $
1!
#840
b100000000 %
0#
b100000 $
0!
#845
1)
1'
b10 %
1#
b1000000000 $
1!
#850
b1 %
0#
0!
#855
b1 %
0"
0)
0'
b100 $
1!
#860
0!
#865
1"
b100000 %
1#
b10000 $
1!
#870
b10 %
1)
1'
b1000000000 $
0!
#875
b100 %
0)
0'
b10 $
1!
#880
b10000000 %
1)
b10000000 $
0!
#885
0)
b1000000 $
1!
#890
b1000000 %
b100000 $
0!
#895
b100 %
b10 $
1!
#900
b10000000 %
1)
b10000000 $
0!
#905
0"
0)
b1 %
0#
b10 $
1!
#910
1"
b10000000 %
1#
b1000000 $
0!
#915
1)
b1 %
0#
b10000000 $
1!
#920
0"
0)
b10000 $
0!
#925
1"
b10000000 %
1#
b1000000 $
1!
#930
0"
b1 %
0#
b10000 $
0!
#935
1"
1'
b100000000 $
1!
#940
0"
0'
b1 $
0!
#945
1"
b100000000 %
b100000 $
1!
#950
b1000 %
1#
b100 $
0!
#955
0"
b1 %
0#
b10000 $
1!
#960
1"
1'
b100000000 $
0!
#965
0'
b1000000 %
1#
b100000 $
1!
#970
b10000000 %
1)
b10000000 $
0!
#975
1'
b1 %
0#
b1000000000 $
1!
#980
b10 %
1#
0!
#985
0"
0)
0'
b1 %
0#
b1000 $
1!
#990
0!
#995
1"
b10000000 %
1#
b1000000 $
1!
#1000
b100000000 %
0#
b100000 $
0!
#1005
1!
#1010
b100000 %
1#
b10000 $
0!
#1015
b1000000000 %
0#
b1000000 $
1!
#1020
0!
#1025
1)
1'
b10 %
1#
b1000000000 $
1!
#1030
b100 %
0)
0'
b10 $
0!
#1035
b1000 %
b100 $
1!
#1040
b100 %
b10 $
0!
#1045
1!
#1050
0!
#1055
b10 %
1'
b100000000 $
1!
#1060
0'
b1 $
0!
#1065
b1000000000 %
0#
b1000000 $
1!
#1070
b1 %
1)
1'
b1000000000 $
0!
#1075
b1 %
0"
0)
0'
b10000 $
1!
#1080
b100 $
0!
#1085
b10 $
1!
#1090
1"
1'
b100000000 $
0!
#1095
0"
0'
b100 $
1!
#1100
1"
b10 %
1#
b1 $
0!
#1105
1!
#1110
b1000000000 %
0#
b1000000 $
0!
#1115
b1 %
1)
1'
b1000000000 $
1!
#1120
0'
b10000000 %
1#
b10000000 $
0!
